<?xml version="1.0" encoding="utf-8"?>
<!-- Generator: Adobe Illustrator 23.0.3, SVG Export Plug-In . SVG Version: 6.00 Build 0)  -->
<svg class="svg" version="1.1" id="_x33_rd_SVG" xmlns="http://www.w3.org/2000/svg" xmlns:xlink="http://www.w3.org/1999/xlink" x="0px"
     y="0px" viewBox="0 0 792 530.05" xml:space="preserve">
    <g id="building_comp">
	<g id="top_stairs">
		<rect x="133.55" y="16.27" class="st0-3" width="180" height="13.46"/>
        <rect x="133.55" y="16.27" class="st1-3" width="180" height="13.46"/>
        <line class="st2-3" x1="293.77" y1="16.27" x2="293.77" y2="28.93"/>
        <line class="st2-3" x1="291.77" y1="16.27" x2="291.77" y2="28.93"/>
        <line class="st2-3" x1="289.77" y1="16.27" x2="289.77" y2="28.93"/>
        <line class="st2-3" x1="287.77" y1="16.27" x2="287.77" y2="28.93"/>
        <line class="st2-3" x1="285.77" y1="16.27" x2="285.77" y2="28.93"/>
        <line class="st2-3" x1="283.77" y1="16.27" x2="283.77" y2="28.93"/>
        <line class="st2-3" x1="281.77" y1="16.27" x2="281.77" y2="28.93"/>
        <line class="st2-3" x1="279.77" y1="16.27" x2="279.77" y2="28.93"/>
        <line class="st2-3" x1="277.77" y1="16.27" x2="277.77" y2="28.93"/>
        <line class="st2-3" x1="275.77" y1="16.27" x2="275.77" y2="28.93"/>
        <line class="st2-3" x1="273.77" y1="16.27" x2="273.77" y2="28.93"/>
        <line class="st2-3" x1="271.77" y1="16.27" x2="271.77" y2="28.93"/>
        <line class="st2-3" x1="269.77" y1="16.27" x2="269.77" y2="28.93"/>
        <line class="st2-3" x1="257.77" y1="16.27" x2="257.77" y2="28.93"/>
        <line class="st2-3" x1="255.77" y1="16.27" x2="255.77" y2="28.93"/>
        <line class="st2-3" x1="253.77" y1="16.27" x2="253.77" y2="28.93"/>
        <line class="st2-3" x1="251.77" y1="16.27" x2="251.77" y2="28.93"/>
        <line class="st2-3" x1="249.77" y1="16.27" x2="249.77" y2="28.93"/>
        <line class="st2-3" x1="247.77" y1="16.27" x2="247.77" y2="28.93"/>
        <line class="st2-3" x1="245.77" y1="16.27" x2="245.77" y2="28.93"/>
        <line class="st2-3" x1="243.77" y1="16.27" x2="243.77" y2="28.93"/>
        <line class="st2-3" x1="241.77" y1="16.27" x2="241.77" y2="28.93"/>
        <line class="st2-3" x1="239.77" y1="16.27" x2="239.77" y2="28.93"/>
        <line class="st2-3" x1="237.77" y1="16.27" x2="237.77" y2="28.93"/>
        <line class="st2-3" x1="235.77" y1="16.27" x2="235.77" y2="28.93"/>
        <line class="st2-3" x1="233.77" y1="16.27" x2="233.77" y2="28.93"/>
        <line class="st2-3" x1="218.77" y1="16.27" x2="218.77" y2="28.93"/>
        <line class="st2-3" x1="216.77" y1="16.27" x2="216.77" y2="28.93"/>
        <line class="st2-3" x1="214.77" y1="16.27" x2="214.77" y2="28.93"/>
        <line class="st2-3" x1="212.77" y1="16.27" x2="212.77" y2="28.93"/>
        <line class="st2-3" x1="210.77" y1="16.27" x2="210.77" y2="28.93"/>
        <line class="st2-3" x1="208.77" y1="16.27" x2="208.77" y2="28.93"/>
        <line class="st2-3" x1="206.77" y1="16.27" x2="206.77" y2="28.93"/>
        <line class="st2-3" x1="204.77" y1="16.27" x2="204.77" y2="28.93"/>
        <line class="st2-3" x1="202.77" y1="16.27" x2="202.77" y2="28.93"/>
        <line class="st2-3" x1="200.77" y1="16.27" x2="200.77" y2="28.93"/>
        <line class="st2-3" x1="198.77" y1="16.27" x2="198.77" y2="28.93"/>
        <line class="st2-3" x1="196.77" y1="16.27" x2="196.77" y2="28.93"/>
        <line class="st2-3" x1="194.77" y1="16.27" x2="194.77" y2="28.93"/>
        <line class="st2-3" x1="192.77" y1="16.27" x2="192.77" y2="28.93"/>
        <line class="st2-3" x1="190.77" y1="16.27" x2="190.77" y2="28.93"/>
        <line class="st2-3" x1="188.77" y1="16.27" x2="188.77" y2="28.93"/>
        <line class="st2-3" x1="177.77" y1="16.27" x2="177.77" y2="28.93"/>
        <line class="st2-3" x1="175.77" y1="16.27" x2="175.77" y2="28.93"/>
        <line class="st2-3" x1="173.77" y1="16.27" x2="173.77" y2="28.93"/>
        <line class="st2-3" x1="171.77" y1="16.27" x2="171.77" y2="28.93"/>
        <line class="st2-3" x1="169.77" y1="16.27" x2="169.77" y2="28.93"/>
        <line class="st2-3" x1="167.77" y1="16.27" x2="167.77" y2="28.93"/>
        <line class="st2-3" x1="165.77" y1="16.27" x2="165.77" y2="28.93"/>
        <line class="st2-3" x1="163.77" y1="16.27" x2="163.77" y2="28.93"/>
        <line class="st2-3" x1="161.77" y1="16.27" x2="161.77" y2="28.93"/>
        <line class="st2-3" x1="159.77" y1="16.27" x2="159.77" y2="28.93"/>
        <line class="st2-3" x1="157.77" y1="16.27" x2="157.77" y2="28.93"/>
        <line class="st2-3" x1="155.77" y1="16.27" x2="155.77" y2="28.93"/>
        <line class="st2-3" x1="153.77" y1="16.27" x2="153.77" y2="28.93"/>
        <line class="st2-3" x1="151.77" y1="16.27" x2="151.77" y2="28.93"/>
        <line class="st2-3" x1="149.77" y1="16.27" x2="149.77" y2="28.93"/>
        <line class="st2-3" x1="147.77" y1="16.27" x2="147.77" y2="28.93"/>
	</g>
        <g id="_x33_rd_Building_Outline_1_">
		<g>
			<polygon points="700.82,414.11 696.46,418.47 752.56,31.76 756.92,27.39 			"/>
		</g>
            <g>
			<polygon points="673.96,501.82 669.6,506.18 696.46,418.47 700.82,414.11 			"/>
		</g>
            <g>
			<polygon class="st3-3" points="599.41,501.82 595.05,506.18 595.04,499.06 599.4,494.7 			"/>
		</g>
            <g>
			<polygon class="st3-3" points="673.96,501.82 669.6,506.18 595.05,506.18 599.41,501.82 			"/>
		</g>
            <g>
			<polygon class="st3-3" points="599.4,494.7 595.04,499.06 111.49,499.06 115.85,494.7 			"/>
		</g>
            <g>
			<polygon points="598.41,502.82 594.05,507.18 594.04,500.06 598.4,495.69 			"/>
		</g>
            <g>
			<polygon points="674.7,502.82 670.34,507.18 594.05,507.18 598.41,502.82 			"/>
		</g>
            <g>
			<polygon points="756.92,27.39 752.56,31.76 57.65,32.88 62.01,28.52 			"/>
		</g>
            <g>
			<polygon class="st3-3" points="61.7,427.6 57.34,431.96 57.65,32.88 62.01,28.52 			"/>
		</g>
            <g>
			<polygon points="61.5,426.6 57.14,430.96 56.65,31.88 61.01,27.52 			"/>
		</g>
            <g>
			<polygon points="62.5,427.58 58.14,431.94 54.28,431.96 58.64,427.6 			"/>
		</g>
            <g>
			<polygon points="598.4,495.69 594.04,500.06 112.49,500.06 116.85,495.69 			"/>
		</g>
            <g>
			<polygon points="115.86,507.7 111.5,512.06 111.48,499.06 115.84,494.7 			"/>
		</g>
            <g>
			<polygon class="st3-3" points="756.92,27.4 700.82,414.11 673.96,501.82 599.41,501.82 599.4,494.7 115.85,494.7 115.86,507.7 
				58.74,507.7 58.64,427.6 61.7,427.6 62.01,28.52 			"/>
		</g>
            <g>
			<polygon class="st3-3" points="58.74,507.7 54.38,512.07 54.28,431.96 58.64,427.6 			"/>
		</g>
            <g>
			<polygon class="st3-3" points="115.86,507.7 111.5,512.07 54.38,512.07 58.74,507.7 			"/>
		</g>
            <g>
			<path d="M61.01,27.52l697.06-1.13l-56.28,387.94l-27.09,88.5h-76.29l-0.01-7.12H116.85l0.02,13.01H57.74l-0.1-82.1h3.86
				L61.01,27.52z M700.82,414.11l56.1-386.71L62.01,28.52l0.49,399.06l-3.86,0.02l0.1,80.1h57.12l-0.02-13H599.4l0.01,7.12h74.55
				L700.82,414.11"/>
		</g>
            <g>
			<polygon points="57.74,508.7 53.38,513.06 53.28,430.96 57.64,426.6 			"/>
		</g>
            <g>
			<polygon points="116.86,508.7 112.5,513.06 53.38,513.06 57.74,508.7 			"/>
		</g>
	</g>
        <g id="bottom_stairs">
		<rect x="137.55" y="497.07" class="st4-3" width="180" height="13.46"/>
            <line class="st2-3" x1="297.77" y1="497.88" x2="297.77" y2="510.53"/>
            <line class="st2-3" x1="295.77" y1="497.88" x2="295.77" y2="510.53"/>
            <line class="st2-3" x1="293.77" y1="497.88" x2="293.77" y2="510.53"/>
            <line class="st2-3" x1="291.77" y1="497.88" x2="291.77" y2="510.53"/>
            <line class="st2-3" x1="289.77" y1="497.88" x2="289.77" y2="510.53"/>
            <line class="st2-3" x1="287.77" y1="497.88" x2="287.77" y2="510.53"/>
            <line class="st2-3" x1="285.77" y1="497.88" x2="285.77" y2="510.53"/>
            <line class="st2-3" x1="283.77" y1="497.88" x2="283.77" y2="510.53"/>
            <line class="st2-3" x1="281.77" y1="497.88" x2="281.77" y2="510.53"/>
            <line class="st2-3" x1="279.77" y1="497.88" x2="279.77" y2="510.53"/>
            <line class="st2-3" x1="277.77" y1="497.88" x2="277.77" y2="510.53"/>
            <line class="st2-3" x1="275.77" y1="497.88" x2="275.77" y2="510.53"/>
            <line class="st2-3" x1="273.77" y1="497.88" x2="273.77" y2="510.53"/>
            <line class="st2-3" x1="261.77" y1="497.88" x2="261.77" y2="510.53"/>
            <line class="st2-3" x1="259.77" y1="497.88" x2="259.77" y2="510.53"/>
            <line class="st2-3" x1="257.77" y1="497.88" x2="257.77" y2="510.53"/>
            <line class="st2-3" x1="255.77" y1="497.88" x2="255.77" y2="510.53"/>
            <line class="st2-3" x1="253.77" y1="497.88" x2="253.77" y2="510.53"/>
            <line class="st2-3" x1="251.77" y1="497.88" x2="251.77" y2="510.53"/>
            <line class="st2-3" x1="249.77" y1="497.88" x2="249.77" y2="510.53"/>
            <line class="st2-3" x1="247.77" y1="497.88" x2="247.77" y2="510.53"/>
            <line class="st2-3" x1="245.77" y1="497.88" x2="245.77" y2="510.53"/>
            <line class="st2-3" x1="243.77" y1="497.88" x2="243.77" y2="510.53"/>
            <line class="st2-3" x1="241.77" y1="497.88" x2="241.77" y2="510.53"/>
            <line class="st2-3" x1="239.77" y1="497.88" x2="239.77" y2="510.53"/>
            <line class="st2-3" x1="237.77" y1="497.88" x2="237.77" y2="510.53"/>
            <line class="st2-3" x1="222.77" y1="497.88" x2="222.77" y2="510.53"/>
            <line class="st2-3" x1="220.77" y1="497.88" x2="220.77" y2="510.53"/>
            <line class="st2-3" x1="218.77" y1="497.88" x2="218.77" y2="510.53"/>
            <line class="st2-3" x1="216.77" y1="497.88" x2="216.77" y2="510.53"/>
            <line class="st2-3" x1="214.77" y1="497.88" x2="214.77" y2="510.53"/>
            <line class="st2-3" x1="212.77" y1="497.88" x2="212.77" y2="510.53"/>
            <line class="st2-3" x1="210.77" y1="497.88" x2="210.77" y2="510.53"/>
            <line class="st2-3" x1="208.77" y1="497.88" x2="208.77" y2="510.53"/>
            <line class="st2-3" x1="206.77" y1="497.88" x2="206.77" y2="510.53"/>
            <line class="st2-3" x1="204.77" y1="497.88" x2="204.77" y2="510.53"/>
            <line class="st2-3" x1="202.77" y1="497.88" x2="202.77" y2="510.53"/>
            <line class="st2-3" x1="200.77" y1="497.88" x2="200.77" y2="510.53"/>
            <line class="st2-3" x1="198.77" y1="497.88" x2="198.77" y2="510.53"/>
            <line class="st2-3" x1="196.77" y1="497.88" x2="196.77" y2="510.53"/>
            <line class="st2-3" x1="194.77" y1="497.88" x2="194.77" y2="510.53"/>
            <line class="st2-3" x1="192.77" y1="497.88" x2="192.77" y2="510.53"/>
            <line class="st2-3" x1="181.77" y1="497.88" x2="181.77" y2="510.53"/>
            <line class="st2-3" x1="179.77" y1="497.88" x2="179.77" y2="510.53"/>
            <line class="st2-3" x1="177.77" y1="497.88" x2="177.77" y2="510.53"/>
            <line class="st2-3" x1="175.77" y1="497.88" x2="175.77" y2="510.53"/>
            <line class="st2-3" x1="173.77" y1="497.88" x2="173.77" y2="510.53"/>
            <line class="st2-3" x1="171.77" y1="497.88" x2="171.77" y2="510.53"/>
            <line class="st2-3" x1="169.77" y1="497.88" x2="169.77" y2="510.53"/>
            <line class="st2-3" x1="167.77" y1="497.88" x2="167.77" y2="510.53"/>
            <line class="st2-3" x1="165.77" y1="497.88" x2="165.77" y2="510.53"/>
            <line class="st2-3" x1="163.77" y1="497.88" x2="163.77" y2="510.53"/>
            <line class="st2-3" x1="161.77" y1="497.88" x2="161.77" y2="510.53"/>
            <line class="st2-3" x1="159.77" y1="497.88" x2="159.77" y2="510.53"/>
            <line class="st2-3" x1="157.77" y1="497.88" x2="157.77" y2="510.53"/>
            <line class="st2-3" x1="155.77" y1="497.88" x2="155.77" y2="510.53"/>
            <line class="st2-3" x1="153.77" y1="497.88" x2="153.77" y2="510.53"/>
            <line class="st2-3" x1="151.77" y1="497.88" x2="151.77" y2="510.53"/>
	</g>
        <g id="_x33_rd_floor">
		<g id="rooms">
			<g id="_x33_rd_flr">
				<g id="halls_3rd">
					<path class="st5-3" d="M297.22,431.62H134.53v-20.81h67.2V286.32h-67.2v-18.31v-22.19h67.14v-132.8h-66.24v-14.5h157.8
						l0.53-70.61h25.63v70.61h296.38V32.05l46.07-0.18v68.52l27.89-0.03v12.24h-49.72v65.85h-12.89v-63.53H518.53v2.91H416.35v295
						h113.59v2.08h114.52v17.5h-45.19v61.91h-64v-62.71H324.51 M333.3,410.81V120.63H221.41v290.18H333.3z"/>
				</g>
                <polygon class="330 st6-3" points="736.21,178.46 745.84,112.61 640.01,112.61 640.01,178.46     "/>
                <polygon class="331 st6-3" points="745.83,112.61 757.46,27.06 661.85,27.06 661.85,99.74 689.74,99.61 689.74,112.61     "/>
                <rect x="220.78" y="120.63" class="340 st6-3" width="64.34" height="66.83"/>
                <rect x="134.24" y="286.32" class="st7-3" width="67.43" height="124.49"/>
                <rect x="220.79" y="344" class="302 st6-3" width="64.34" height="66.83"/>
                <rect x="518.53" y="114.93" class="st7-3" width="47.17" height="66.3"/>
                <rect x="416.35" y="117.83" class="327 st6-3" width="65.94" height="62.02"/>
                <rect x="416.35" y="350.82" class="321 st6-3" width="65.94" height="62.02"/>
                <rect x="416.35" y="179.86" class="325 st6-3" width="65.94" height="85.46"/>
                <rect x="416.35" y="265.32" class="323 st6-3" width="65.94" height="85.46"/>
                <rect x="333.3" y="117.83" class="328 st6-3" width="65.94" height="62.02"/>
                <rect x="333.3" y="350.81" class="322 st6-3" width="65.94" height="62.02"/>
                <rect x="333.3" y="179.86" class="326 st6-3" width="65.94" height="85.46"/>
                <rect x="333.3" y="265.32" class="324 st6-3" width="65.94" height="85.46"/>
                <rect x="565.7" y="114.92" class="332 st6-3" width="61.43" height="66.3"/>
                <rect x="530.94" y="27.06" class="333 st6-3" width="84.83" height="70.59"/>
                <rect x="529.95" y="348.44" class="320 st6-3" width="84.83" height="66.48"/>
                <rect x="468.16" y="27.06" class="335 st6-3" width="62.79" height="70.59"/>
                <rect x="382.41" y="27.06" class="337 st6-3" width="85.75" height="70.59"/>
                <rect x="319.4" y="27.06" class="339 st6-3" width="63" height="70.59"/>
                <rect x="234.85" y="27.06" class="341 st8-3" width="58.92" height="70.59"/>
                <rect x="168.95" y="27.07" class="343 st6-3" width="65.44" height="70.59"/>
                <polygon class="st7-3" points="632.78,349.13 710.53,349.13 701.14,417.22 644.47,417.22 644.47,414.78 614.78,414.78       614.78,396.72 632.78,396.71     "/>
                <polygon class="319 st6-3" points="599.28,500.85 599.28,431.45 644.23,431.45 644.23,417.22 701.14,417.22 674.14,500.85     "/>
                <rect x="472.19" y="427.92" class="317 st6-3" width="63.09" height="65.93"/>
                <rect x="386.95" y="427.92" class="315 st6-3" width="85.25" height="65.93"/>
                <rect x="323.86" y="427.93" class="313 st6-3" width="63.09" height="65.93"/>
                <rect x="239.08" y="427.92" class="311 st9-3" width="58.68" height="65.93"/>
                <rect x="176.41" y="427.92" class="309 st6-3" width="62.77" height="65.93"/>
                <polygon class="307 st6-3" points="115.28,493.85 115.28,507.53 58.67,507.53 58.67,427.92 176.41,427.92 176.41,493.85"/>
                <g id="electrical_copy">
					<rect x="581.37" y="466.47" class="st7-3" width="18.22" height="27.73"/>
                    <rect x="179.98" y="112.89" class="st6-3" width="22" height="22.26"/>
                    <rect x="616.09" y="50.23" class="st6-3" width="14.52" height="17.29"/>
                    <rect x="584.65" y="434.22" class="st6-3" width="14.93" height="14.85"/>
				</g>
                <g id="stairs__x26__elev_copy">
					<rect x="616.09" y="27.06" class="st10-3" width="46.07" height="23.17"/>
                    <rect x="627.42" y="50.23" class="st10-3" width="23.5" height="17.29"/>
                    <rect x="535.29" y="469.9" class="st10-3" width="46.07" height="24.3"/>
                    <rect x="547.22" y="452.61" class="st10-3" width="23.5" height="17.29"/>
                    <rect x="130.97" y="245.69" class="st10-3" width="45.98" height="22.19"/>
                    <rect x="176.96" y="245.7" class="st10-3" width="25.02" height="19.1"/>
				</g>
                <g id="commercial_space">
					<polygon class="st10-3" points="202.16,246.26 135.55,246.26 135.55,243.91 63.02,243.91 63.02,29 93.46,29 93.46,15.79 
						168.96,15.79 168.96,113.22 202.16,113.22 179.41,113.39 179.41,135.85 202.16,135.85 					"/>
                    <polygon class="st6-3" points="202.16,135.2 179.41,135.2 179.41,112.86 202.16,112.69 					"/>
                    <polygon class="st7-3" points="202.16,135.2 179.41,135.2 179.41,112.86 202.16,112.69 					"/>
				</g>
                <rect id="amenity_restrooms_1_" x="134.25" y="135.29" class="st7-3" width="67.43" height="47.5"/>
			</g>
		</g>
            <g id="_x33_rd__x23_s">
			<text transform="matrix(0.9091 0 0 1 678.5742 359.624)" class="318 st11-3 st12-3">318</text>
                <text transform="matrix(0.9091 0 0 1 667.4043 369.2271)" class="st11-3 st12-3">Resident </text>
                <text transform="matrix(0.9091 0 0 1 669.9941 378.8193)" class="st11-3 st12-3">Lounge</text>
                <text transform="matrix(0.9091 0 0 1 563.4756 377.8086)" class="320 st11-3 st12-3">320</text>
                <text transform="matrix(0.9091 0 0 1 566.7959 387.4116)" class="320 st11-3 st12-3">B1</text>
                <text transform="matrix(0.9091 0 0 1 634.9277 463.7666)" class="319 st11-3 st12-3">319</text>
                <text transform="matrix(0.9091 0 0 1 636.208 473.3691)" class="319 st11-3 st12-3">B6</text>
                <text transform="matrix(0.9091 0 0 1 497.4092 461.5332)" class="317 st11-3 st12-3">317</text>
                <text transform="matrix(0.9091 0 0 1 499.209 471.1367)" class="317 st11-3 st12-3">A1</text>
                <text transform="matrix(0.9091 0 0 1 423.1543 461.5342)" class="315 st11-3 st12-3">315</text>
                <text transform="matrix(0.9091 0 0 1 425.2744 471.1377)" class="315 st11-3 st12-3">B1</text>
                <text transform="matrix(0.9091 0 0 1 349.5537 461.5342)" class="313 st11-3 st12-3">313</text>
                <text transform="matrix(0.9091 0 0 1 351.3633 471.1377)" class="313 st11-3 st12-3">A1</text>
                <text transform="matrix(0.9091 0 0 1 261.0752 461.5342)" class="311 st11-3 st12-3">311</text>
                <text transform="matrix(0.9091 0 0 1 261.2852 471.1377)" class="311 st11-3 st12-3">A2</text>
                <text transform="matrix(0.9091 0 0 1 199.7158 461.5342)" class="309 st11-3 st12-3">309</text>
                <text transform="matrix(0.9091 0 0 1 202.916 471.1377)" class="309 st11-3 st12-3">A1</text>
                <text transform="matrix(0.9091 0 0 1 113.0859 461.5342)" class="307 st11-3 st12-3">307</text>
                <text transform="matrix(0.9091 0 0 1 116.3257 471.1377)" class="307 st11-3 st12-3">C1</text>
                <text transform="matrix(0.9091 0 0 1 158.6758 349.4355)" class="st11-3 st12-3">301</text>
                <text transform="matrix(0.9091 0 0 1 150.0659 359.0386)" class="st11-3 st12-3">Leasing</text>
                <text transform="matrix(0.9091 0 0 1 80.3857 135.6543)" class="st11-3 st12-3">Amenities/ </text>
                <text transform="matrix(0.9091 0 0 1 78.5459 145.2568)" class="st11-3 st12-3">Commercial </text>
                <text transform="matrix(0.9091 0 0 1 90.5859 154.8491)" class="st11-3 st12-3">Space</text>
                <text transform="matrix(0.9091 0 0 1 145.7178 161.0176)" class="st11-3 st12-3">Restrooms</text>
                <text transform="matrix(0.9091 0 0 1 194.9502 61.4648)" class="343 st11-3 st12-3">343</text>
                <text transform="matrix(0.9091 0 0 1 197.8301 71.0679)" class="343 st11-3 st12-3">A1</text>
                <text transform="matrix(0.9091 0 0 1 254.9141 61.457)" class="341 st11-3 st12-3">341</text>
                <text transform="matrix(0.9091 0 0 1 256.1938 71.0601)" class="341 st11-3 st12-3">A2</text>
                <text transform="matrix(0.9091 0 0 1 345.1133 61.4487)" class="339 st11-3 st12-3">339</text>
                <text transform="matrix(0.9091 0 0 1 347.8828 71.0518)" class="339 st11-3 st12-3">A1</text>
                <text transform="matrix(0.9091 0 0 1 418.6094 61.4399)" class="337 st11-3 st12-3">337</text>
                <text transform="matrix(0.9091 0 0 1 421.4795 71.043)" class="337 st11-3 st12-3">B1</text>
                <text transform="matrix(0.9091 0 0 1 492.2764 61.4399)" class="335 st11-3 st12-3">335</text>
                <text transform="matrix(0.9091 0 0 1 494.916 71.043)" class="335 st11-3 st12-3">A1</text>
                <text transform="matrix(0.9091 0 0 1 565.7285 61.4487)" class="333 st11-3 st12-3">333</text>
                <text transform="matrix(0.9091 0 0 1 568.6084 71.0518)" class="333 st11-3 st12-3">B1</text>
                <text transform="matrix(0.9091 0 0 1 702.4316 61.4487)" class="331 st11-3 st12-3">331</text>
                <text transform="matrix(0.9091 0 0 1 703.6816 71.0518)" class="331 st11-3 st12-3">B5</text>
                <text transform="matrix(0.9091 0 0 1 682.3369 141.6807)" class="330 st11-3 st12-3">330</text>
                <text transform="matrix(0.9091 0 0 1 684.5771 151.2842)" class="330 st11-3 st12-3">B4</text>
                <text transform="matrix(0.9091 0 0 1 588.4268 144.2363)" class="332 st11-3 st12-3">332</text>
                <text transform="matrix(0.9091 0 0 1 591.0371 153.8394)" class="332 st11-3 st12-3">A1</text>
                <text transform="matrix(0.9091 0 0 1 534.0078 145.4331)" class="334 st11-3 st12-3">334</text>
                <text transform="matrix(0.9091 0 0 1 527.2773 155.0361)" class="334 st11-3 st12-3">Fitness</text>
                <text transform="matrix(0.9091 0 0 1 440.8623 145.2363)" class="327 st11-3 st12-3">327</text>
                <text transform="matrix(0.9091 0 0 1 443.4619 154.8394)" class="327 st11-3 st12-3">A1</text>
                <text transform="matrix(0.9091 0 0 1 440.8184 218.2466)" class="325 st11-3 st12-3">325</text>
                <text transform="matrix(0.9091 0 0 1 443.7383 227.8496)" class="325 st11-3 st12-3">B1</text>
                <text transform="matrix(0.9091 0 0 1 440.8545 305.5532)" class="323 st11-3 st12-3">323</text>
                <text transform="matrix(0.9091 0 0 1 443.7344 315.1563)" class="323 st11-3 st12-3">B1</text>
                <text transform="matrix(0.9091 0 0 1 441.6504 377.8428)" class="321 st11-3 st12-3">321</text>
                <text transform="matrix(0.9091 0 0 1 443.4707 387.4458)" class="321 st11-3 st12-3">A1</text>
                <text transform="matrix(0.9091 0 0 1 358.79 145.2529)" class="328 st11-3 st12-3">328</text>
                <text transform="matrix(0.9091 0 0 1 361.4404 154.856)" class="328 st11-3 st12-3">A1</text>
                <text transform="matrix(0.9091 0 0 1 358.6621 218.2466)" class="326 st11-3 st12-3">326</text>
                <text transform="matrix(0.9091 0 0 1 361.7119 227.8496)" class="326 st11-3 st12-3">B1</text>
                <text transform="matrix(0.9091 0 0 1 358.5547 305.5864)" class="324 st11-3 st12-3">324</text>
                <text transform="matrix(0.9091 0 0 1 361.7148 315.1895)" class="324 st11-3 st12-3">B1</text>
                <text transform="matrix(0.9091 0 0 1 358.8184 377.8428)" class="322 st11-3 st12-3">322</text>
                <text transform="matrix(0.9091 0 0 1 361.4385 387.4458)" class="322 st11-3 st12-3">A1</text>
                <text transform="matrix(0.9091 0 0 1 244.6846 373.583)" class="302 st11-3 st12-3">302</text>
                <text transform="matrix(0.9091 0 0 1 247.7344 383.1865)" class="302 st11-3 st12-3">A1</text>
                <text transform="matrix(0.9091 0 0 1 245.4209 149.3799)" class="340 st11-3 st12-3">340</text>
                <text transform="matrix(0.9091 0 0 1 248.731 158.9824)" class="340 st11-3 st12-3">A1</text>
		</g>
	</g>
        <g id="showers__x26__bath">
		<rect x="632.78" y="358.08" class="st7-3" width="33.11" height="17.32"/>
            <polygon class="st7-3" points="657.67,388.52 657.61,396.74 632.78,396.74 632.78,375.4 665.89,375.4 665.89,388.56 		"/>
            <g>
			<rect x="632.78" y="348.4" class="st7-3" width="16.56" height="9.68"/>
                <line class="st13-3" x1="632.78" y1="358.08" x2="649.33" y2="348.4"/>
                <line class="st13-3" x1="649.33" y1="358.08" x2="632.78" y2="348.4"/>
                <polygon class="st14-3" points="632.91,353.24 634.62,354.23 634.62,352.25 			"/>
		</g>
            <g>
			<rect x="649.33" y="348.4" class="st7-3" width="16.56" height="9.68"/>
                <line class="st13-3" x1="649.33" y1="358.08" x2="665.89" y2="348.4"/>
                <line class="st13-3" x1="665.89" y1="358.08" x2="649.33" y2="348.4"/>
                <polygon class="st14-3" points="665.62,353.24 663.91,354.23 663.91,352.25 			"/>
		</g>
            <g>
			<rect x="632.79" y="373.34" class="st13-3" width="8.64" height="0.58"/>
                <path class="st13-3" d="M641.43,373.34c-0.11-0.61-0.64-3.1-2.99-4.92c-2.42-1.88-5.07-1.73-5.66-1.68"/>
		</g>
            <g>
			<rect x="632.79" y="376.72" class="st13-3" width="8.64" height="0.58"/>
                <path class="st13-3" d="M641.43,377.29c-0.11,0.61-0.64,3.1-2.99,4.92c-2.42,1.88-5.07,1.73-5.66,1.68"/>
		</g>
            <text transform="matrix(0.9091 0 0 1 635.707 368.2183)" class="st11-3 st15-3">Restrooms</text>
            <text transform="matrix(0.9091 0 0 1 647.5967 374.2134)" class="st11-3 st15-3">&amp;</text>
            <text transform="matrix(0.9091 0 0 1 638.5264 380.2192)" class="st11-3 st15-3">Showers</text>
	</g>
</g>
    <g id="text">
	<text transform="matrix(0.9091 0 0 1 547.1875 485.7832)" class="st11-3 st12-3">Stairs</text>
        <text transform="matrix(0.9091 0 0 1 627.3359 41.0845)" class="st11-3 st12-3">Stairs </text>
        <text transform="matrix(0.9091 0 0 1 142.7256 257.3828)" class="st11-3 st12-3">Stairs</text>
        <text transform="matrix(0.9091 0 0 1 179.2773 255.7354)" class="st11-3 st12-3">Elev.</text>
        <text transform="matrix(0.9091 0 0 1 548.7793 464.7334)" class="st11-3 st12-3">Elev.</text>
        <text transform="matrix(0 0.9091 -1 0 587.5557 469.2021)" class="st11-3 st12-3">Trash</text>
        <text transform="matrix(0.9091 0 0 1 179.6523 126.4688)" class="st11-3 st12-3">Trash</text>
        <text transform="matrix(0.9091 0 0 1 628.9873 60.9546)" class="st11-3 st12-3">Elev.</text>
</g>
</svg>
